{
  "key": "dark-letter-allocation",
  "name_de": "Eintüten im Dunkeln",
  "short_name_de": "Eintüten im Dunkeln",
  "content_de": [
    "Ein Weihnachtswichtel sitzt des Nachts bei Kerzenschein am Tisch und schreibt drei Weihnachtsbriefe an drei verschiedene Freunde. Er hat gerade die Umschläge fertig adressiert, als ein Luftstoß seine Kerze auspustet.",
    "Da er zu faul ist, die Kerze neu zu entzünden, tütet er die Briefe im Dunkeln per Zufall in die drei Umschläge ein. Je Umschlag ein Brief.",
    "Wie groß ist die Chance, dass er per Zufall genau zwei von drei Briefen in den richtigen Umschlag getan hat?"
  ],
  "difficulty": 0,
  "type": "trick",
  "hype": 0,

  "hints_de": [
    ""
  ],
  "spoilers_de": [
    ""
  ],
  "solution_short_de": "0%",
  "solution_overview_de": "",
  "solution_explanation_de": "Es ist nicht möglich, dass genau zwei von drei Briefen im richtigen Umschlag gelandet sind — der dritte müsste dann auch im richtigen Umschlag gelandet sein. Die Wahrscheinlichkeit liegt folglich bei 0.",
  "tags_de": [
    "stochastik"
  ],
  "sources": [
    {
      "key": "denksport",
      "text_de": "Denksport-Rätsel",
      "link": [
        "http://www.denksport-raetsel.de/R%C3%A4tsel/Eint%C3%BCten_im_Dunkeln"
      ]
    }
  ],
  "extra": [ "" ]
}